<?xml version="1.0" encoding="UTF-8" standalone="no"?>
<svg
   xmlns:dc="http://purl.org/dc/elements/1.1/"
   xmlns:cc="http://creativecommons.org/ns#"
   xmlns:rdf="http://www.w3.org/1999/02/22-rdf-syntax-ns#"
   xmlns:svg="http://www.w3.org/2000/svg"
   xmlns="http://www.w3.org/2000/svg"
   version="1.0"
   width="259.80719"
   height="112.12132"
   id="svg6045">
  <defs
     id="defs6047" />
  <g
     transform="rotate(45,646.45492,135.71841)"
     id="g9941">
    <path
       d="m 230.60911,359.6294 78.28177,80.28173 7.07106,-87.88325 z"
       style="fill:#ffaaaa;fill-opacity:1;fill-rule:evenodd;stroke:none;stroke-width:1px;stroke-linecap:butt;stroke-linejoin:miter;stroke-opacity:1"
       id="path9939" />
    <path
       transform="rotate(-45)"
       style="opacity:1;fill:#ffaaaa;fill-opacity:1;fill-rule:nonzero;stroke:#ffaaaa;stroke-width:2.09365106;stroke-linejoin:round;stroke-miterlimit:4;stroke-dasharray:none;stroke-opacity:1"
       d="m -284.21109,444.97485 h 205.42894 v 56.49506 h -205.42894 l 26,-28.24753 z"
       id="rect815" />
  </g>
</svg>
