<?xml version="1.0" encoding="UTF-8" standalone="no"?>
<svg xmlns="http://www.w3.org/2000/svg"
   width="71.8mm" height="22mm"
   viewBox="0 0 71.8 22" preserveAspectRatio="none"
   version="1.1">
  <g id="layer1">
    <path fill="#E8FFB8" fill-opacity="1" stroke="none"
       d="M 0,0 H 70 V 16 L 35.6,20.5 0,16 Z"/>
  </g>
</svg>
